C:\Users\prope\eclipse-workspace\selenium-for-beginners\src\test\java\com\herokuapp\theinternet\NegativeTests.java
C:\Users\prope\eclipse-workspace\selenium-for-beginners\src\test\java\com\herokuapp\theinternet\PositiveTests.java
C:\Users\prope\eclipse-workspace\selenium-for-beginners\src\test\java\com\translate\google\PriorityExecutionOrder.java
C:\Users\prope\eclipse-workspace\selenium-for-beginners\src\test\java\com\herokuapp\theinternet\PriorityExecutionOrder.java
C:\Users\prope\eclipse-workspace\selenium-for-beginners\src\test\java\com\translate\google\HighLighter.java
