﻿{
	"info": {
		"_postman_id": "f2fa9995-7b2f-4bbf-9873-008cc2cd0feb",
		"name": "Restful Booker",
		"schema": "https://schema.getpostman.com/json/collection/v2.1.0/collection.json"
	},
	"item": [
		{
			"name": "Ping",
			"request": {
				"method": "GET",
				"header": [],
				"body": {
					"mode": "raw",
					"raw": ""
				},
				"url": {
					"raw": "https://restful-booker.herokuapp.com/ping",
					"protocol": "https",
					"host": [
						"restful-booker",
						"herokuapp",
						"com"
					],
					"path": [
						"ping"
					]
				}
			},
			"response": []
		},
		{
			"name": "Auth",
			"request": {
				"method": "POST",
				"header": [
					{
						"key": "Content-Type",
						"value": "application/json"
					}
				],
				"body": {
					"mode": "raw",
					"raw": "{\n    \"username\" : \"admin\",\n    \"password\" : \"password123\"\n}"
				},
				"url": {
					"raw": "https://restful-booker.herokuapp.com/auth",
					"protocol": "https",
					"host": [
						"restful-booker",
						"herokuapp",
						"com"
					],
					"path": [
						"auth"
					]
				}
			},
			"response": []
		},
		{
			"name": "Get All Bookings",
			"request": {
				"method": "GET",
				"header": [],
				"body": {
					"mode": "raw",
					"raw": ""
				},
				"url": {
					"raw": "https://restful-booker.herokuapp.com/booking",
					"protocol": "https",
					"host": [
						"restful-booker",
						"herokuapp",
						"com"
					],
					"path": [
						"booking"
					]
				}
			},
			"response": []
		},
		{
			"name": "Get Booking By Name",
			"request": {
				"method": "GET",
				"header": [],
				"body": {
					"mode": "raw",
					"raw": ""
				},
				"url": {
					"raw": "https://restful-booker.herokuapp.com/booking?firstname=sally&lastname=brown",
					"protocol": "https",
					"host": [
						"restful-booker",
						"herokuapp",
						"com"
					],
					"path": [
						"booking"
					],
					"query": [
						{
							"key": "firstname",
							"value": "sally"
						},
						{
							"key": "lastname",
							"value": "brown"
						}
					]
				}
			},
			"response": []
		},
		{
			"name": "Get Bookings By Date",
			"request": {
				"method": "GET",
				"header": [],
				"body": {
					"mode": "raw",
					"raw": ""
				},
				"url": {
					"raw": "https://restful-booker.herokuapp.com/booking?checkin=2014-03-13&checkout=2014-05-21",
					"protocol": "https",
					"host": [
						"restful-booker",
						"herokuapp",
						"com"
					],
					"path": [
						"booking"
					],
					"query": [
						{
							"key": "checkin",
							"value": "2014-03-13"
						},
						{
							"key": "checkout",
							"value": "2014-05-21"
						}
					]
				}
			},
			"response": []
		},
		{
			"name": "Get Booking By ID",
			"request": {
				"method": "GET",
				"header": [],
				"body": {
					"mode": "raw",
					"raw": ""
				},
				"url": {
					"raw": "https://restful-booker.herokuapp.com/booking/1",
					"protocol": "https",
					"host": [
						"restful-booker",
						"herokuapp",
						"com"
					],
					"path": [
						"booking",
						"1"
					]
				}
			},
			"response": []
		},
		{
			"name": "Create Booking",
			"request": {
				"method": "POST",
				"header": [
					{
						"key": "Content-Type",
						"value": "application/json"
					}
				],
				"body": {
					"mode": "raw",
					"raw": "{\n    \"firstname\" : \"Jim\",\n    \"lastname\" : \"Brown\",\n    \"totalprice\" : 111,\n    \"depositpaid\" : true,\n    \"bookingdates\" : {\n        \"checkin\" : \"2018-01-01\",\n        \"checkout\" : \"2019-01-01\"\n    },\n    \"additionalneeds\" : \"Breakfast\"\n}"
				},
				"url": {
					"raw": "https://restful-booker.herokuapp.com/booking",
					"protocol": "https",
					"host": [
						"restful-booker",
						"herokuapp",
						"com"
					],
					"path": [
						"booking"
					]
				}
			},
			"response": []
		},
		{
			"name": "Update Booking",
			"request": {
				"method": "PUT",
				"header": [
					{
						"key": "Content-Type",
						"value": "application/json"
					},
					{
						"key": "Accept",
						"value": "application/json"
					},
					{
						"key": "Cookie",
						"value": "token=abc123"
					}
				],
				"body": {
					"mode": "raw",
					"raw": "{\n    \"firstname\" : \"James\",\n    \"lastname\" : \"Brown\",\n    \"totalprice\" : 111,\n    \"depositpaid\" : true,\n    \"bookingdates\" : {\n        \"checkin\" : \"2018-01-01\",\n        \"checkout\" : \"2019-01-01\"\n    },\n    \"additionalneeds\" : \"Breakfast\"\n}"
				},
				"url": {
					"raw": "https://restful-booker.herokuapp.com/booking/1",
					"protocol": "https",
					"host": [
						"restful-booker",
						"herokuapp",
						"com"
					],
					"path": [
						"booking",
						"1"
					]
				}
			},
			"response": []
		},
		{
			"name": "Partial Update Booking",
			"request": {
				"method": "PATCH",
				"header": [
					{
						"key": "Content-Type",
						"value": "application/json"
					},
					{
						"key": "Accept",
						"value": "application/json"
					},
					{
						"key": "Cookie",
						"value": "token=abc123"
					}
				],
				"body": {
					"mode": "raw",
					"raw": "{\n    \"firstname\" : \"James\",\n    \"lastname\" : \"Brown\"\n}"
				},
				"url": {
					"raw": "{{rb_url}}/booking/1",
					"host": [
						"{{rb_url}}"
					],
					"path": [
						"booking",
						"1"
					]
				}
			},
			"response": []
		},
		{
			"name": "Delete Booking",
			"request": {
				"method": "DELETE",
				"header": [
					{
						"key": "Content-Type",
						"value": "application/json"
					},
					{
						"key": "Cookie",
						"value": "token=abc123"
					}
				],
				"body": {},
				"url": {
					"raw": "{{rb_url}}/booking/1",
					"host": [
						"{{rb_url}}"
					],
					"path": [
						"booking",
						"1"
					]
				}
			},
			"response": []
		}
	],
	"event": [
		{
			"listen": "prerequest",
			"script": {
				"id": "858f0d4e-0d8a-4587-a962-f5d8f2446884",
				"type": "text/javascript",
				"exec": [
					""
				]
			}
		},
		{
			"listen": "test",
			"script": {
				"id": "da1316f6-9655-441e-bd27-8abc3715f398",
				"type": "text/javascript",
				"exec": [
					""
				]
			}
		}
	]
}