{
	"id": "cfede32f-338b-4afa-a5db-7804a6c036be",
	"name": "Production_Pets",
	"values": [
		{
			"key": "base_url",
			"value": "https://petstore.swagger.io/v2",
			"enabled": true
		}
	],
	"_postman_variable_scope": "environment",
	"_postman_exported_at": "2019-10-15T18:31:53.370Z",
	"_postman_exported_using": "Postman/7.9.0"
}